<svg width="24" height="24" viewBox="0 0 24 24" fill="none" xmlns="http://www.w3.org/2000/svg">
<path d="M7.00024 12C8.07918 11.2854 9.43814 10.0306 9.86538 9.62809C9.95616 9.54257 10.0575 9.46431 10.1124 9.35231C10.2569 9.05755 10.2741 8.49611 10.2364 8.26451C10.0758 7.36124 10.0551 6.41526 10.1938 5.45299C10.2549 5.02959 9.95838 4.63323 9.53498 4.57218L6.0708 4.07272M11.0002 17L14.0002 14.7473C14.2469 14.5628 14.8281 14.6237 15.0853 14.7473C15.9065 15.1564 16.808 15.4436 17.7703 15.5823C18.1937 15.6433 18.4902 16.0397 18.4291 16.4631L17.9297 19.9273" stroke="#FAA74B" stroke-width="1.4" stroke-linecap="round" stroke-linejoin="round"/>
<path d="M6.0708 4.07272L5.95981 4.84256C5.63878 7.06914 5.89233 9.24584 6.6082 11.2226C7.1202 12.6364 7.86868 13.9479 8.81258 15.1022L8.8877 15.1933C9.57135 16.0144 10.3548 16.754 11.2228 17.392C12.9169 18.6372 14.9333 19.4953 17.1599 19.8163L17.9297 19.9273" stroke="#FAA74B" stroke-width="1.4" stroke-linecap="round" stroke-linejoin="round"/>
</svg>
