<svg width="25" height="24" viewBox="0 0 25 24" fill="none" xmlns="http://www.w3.org/2000/svg">
<path d="M6.1 18C5.66 18 5.28333 17.8531 4.97 17.5594C4.65667 17.2656 4.5 16.9125 4.5 16.5V7.5C4.5 7.0875 4.65667 6.73438 4.97 6.44062C5.28333 6.14687 5.66 6 6.1 6H18.9C19.34 6 19.7167 6.14687 20.03 6.44062C20.3433 6.73438 20.5 7.0875 20.5 7.5V16.5C20.5 16.9125 20.3433 17.2656 20.03 17.5594C19.7167 17.8531 19.34 18 18.9 18H6.1ZM12.5 12.75L6.1 9V16.5H18.9V9L12.5 12.75ZM12.5 11.25L18.9 7.5H6.1L12.5 11.25ZM6.1 9V7.5V16.5V9Z" fill="#EC2227"/>
</svg>
