<svg width="24" height="24" viewBox="0 0 24 24" fill="none" xmlns="http://www.w3.org/2000/svg">
<path d="M9.50218 15.1686C9.11161 15.5588 8.4787 15.5586 8.08831 15.1682L5.32969 12.4096C4.94014 12.0201 4.30851 12.0193 3.91759 12.4075C3.52471 12.7976 3.52319 13.4331 3.91469 13.8246L8.08797 17.9979C8.4785 18.3884 9.11166 18.3884 9.50218 17.9979L20.0899 7.41016C20.4794 7.02071 20.4794 6.38928 20.0899 5.99983C19.7006 5.61051 19.0694 5.61036 18.6799 5.9995L9.50218 15.1686Z" fill="#19B43C"/>
</svg>
